Exploring Transportation and Air Quality in Washington, DC
…
The following code obtains loadings and displays the component values for each observation of the first five components.

Show the code

# obtain loadings
pca_pcs <- pca_rec %>%
  bake(new_data = transit_pca)

# view component values for each observation
pca_rec %>%
  bake(new_data = NULL)

# A tibble: 206 × 5
      PC1    PC2    PC3      PC4     PC5
    <dbl>  <dbl>  <dbl>    <dbl>   <dbl>
 1 -0.206  0.555  1.12   1.18    -1.56  
 2  2.85   0.621  0.208 -1.72    -0.398 
 3  1.80   2.28  -1.58   0.558   -2.26  
 4  2.76  -0.775  1.86   1.14    -0.250 
 5 -1.63  -1.34   1.30  -1.14    -0.967 
 6  1.23  -2.92  -0.600  1.89     0.0978
 7  0.295  0.684 -1.40  -0.00157  0.0568
 8  0.133 -1.81   0.263  1.00    -0.857 
 9 -0.502 -2.54   1.23  -0.568   -0.247 
10 -0.931  0.215  1.00   0.00197 -1.59  
# … with 196 more rows
…
